…
### 5.2.1 Fit Logistic regression model 1

``` r
train_data$Diabetes_binary_transformed = train_data$Diabetes_binary
val_data$Diabetes_binary_transformed = val_data$Diabetes_binary

levels(train_data$Diabetes_binary_transformed) = make.names(levels(train_data$Diabetes_binary_transformed))
levels(val_data$Diabetes_binary_transformed) = make.names(levels(val_data$Diabetes_binary_transformed))
```

``` r
train_data
```

    ## # A tibble: 2,952 × 23
    ##    Diabetes_binary HighBP HighChol CholCheck   BMI Smoker Stroke HeartDiseaseorAttack PhysActivity
    ##    <fct>           <fct>  <fct>    <fct>     <dbl> <fct>  <fct>  <fct>                <fct>       
    ##  1 0               1      1        1            38 1      0      0                    0           
    ##  2 1               1      1        1            28 1      0      1                    0           
    ##  3 1               1      1        1            25 1      0      1                    0           
    ##  4 0               1      1        1            45 1      0      1                    1           
    ##  5 1               1      0        1            30 0      0      0                    1           
    ##  6 0               0      1        1            36 0      0      0                    0           
    ##  7 0               0      0        1            20 0      0      0                    1           
    ##  8 0               1      1        1            37 0      0      0                    0           
    ##  9 1               1      1        1            30 1      0      0                    0           
    ## 10 1               1      1        1            32 1      0      0                    0           
    ## # ℹ 2,942 more rows
    ## # ℹ 14 more variables: Fruits <fct>, Veggies <fct>, HvyAlcoholConsump <fct>, AnyHealthcare <dbl>,
    ## #   NoDocbcCost <dbl>, GenHlth <dbl>, MentHlth <dbl>, PhysHlth <dbl>, DiffWalk <dbl>, Sex <fct>,
    ## #   Age <fct>, Education <dbl>, Income <fct>, Diabetes_binary_transformed <fct>
…
